<?xml version="1.0" encoding="utf-8"?>
<!-- Generated by DSEdit -->

<ENTRY NAME="CustomerSite" CLASS="Site">

	<ENTRY NAME="Production" CLASS="Configuration Set">

		<ENTRY NAME="Workgroups" CLASS="Workgroups">

			<ENTRY NAME="Complaints Escalation - 1" CLASS="Workgroup">

			<ATTRIBUTE NAME="Queue Management Style"><VALUE>ACD</VALUE></ATTRIBUTE>

			</ENTRY>
		
			<ENTRY NAME="Complaints Research - 1" CLASS="Workgroup">

			<ATTRIBUTE NAME="Queue Management Style"><VALUE>ACD</VALUE></ATTRIBUTE>

			</ENTRY>
	
		</ENTRY>

	</ENTRY>

</ENTRY>

