<?xml version="1.0" encoding="utf-8"?>
<!-- Generated by DSEdit -->

<ENTRY NAME="CustomerSite" CLASS="Site">

	<ENTRY NAME="Production" CLASS="Configuration Set">

		<ENTRY NAME="Configuration" CLASS="Configuration">

			<ENTRY NAME="Data Sources" CLASS="Data Sources">

				<ENTRY NAME="Complaint" CLASS="Data Source">

					<ATTRIBUTE NAME="Type"><VALUE>ODBC</VALUE></ATTRIBUTE>
					<ATTRIBUTE NAME="File DSN"><VALUE>No</VALUE></ATTRIBUTE>
					<ATTRIBUTE NAME="Date Last Modified"><VALUE>1378077433</VALUE></ATTRIBUTE>
					<ATTRIBUTE NAME="ODBC DSN"><VALUE>CCPL</VALUE></ATTRIBUTE>
					<ATTRIBUTE NAME="Read Only"><VALUE>No</VALUE></ATTRIBUTE>
					<ATTRIBUTE NAME="QUAL"><VALUE>dbo</VALUE></ATTRIBUTE>
					<ATTRIBUTE NAME="Manual Connection String"><VALUE>No</VALUE></ATTRIBUTE>
					<ATTRIBUTE NAME="Subtype"><VALUE>MS SQL</VALUE></ATTRIBUTE>

				</ENTRY>

			</ENTRY>

		</ENTRY>

	</ENTRY>

</ENTRY>

