<?xml version="1.0" encoding="utf-8"?>
<!-- Generated by DSEdit -->

<ENTRY NAME="CustomerSite" CLASS="Site">

<ENTRY NAME="Production" CLASS="Configuration Set">
<ENTRY NAME="Configuration" CLASS="Configuration">

<ENTRY NAME="Reports" CLASS="Reports">

<ENTRY NAME="CUSTOMER_COMPLAINT" CLASS="Report"><ATTRIBUTE NAME="Description"><VALUE>Template</VALUE></ATTRIBUTE><ATTRIBUTE NAME="Date Last Modified"><VALUE>1408392181</VALUE></ATTRIBUTE><ATTRIBUTE NAME="Report File"><VALUE>${ReportFilePath}\CustomerComplaint01.RPT</VALUE></ATTRIBUTE><ATTRIBUTE NAME="Report Type"><VALUE>Eic Report</VALUE></ATTRIBUTE><ATTRIBUTE NAME="Param Data"><VALUE>SCHEMA=1|1|FmtPadCustID|Enter FmtPadCustID:|STRING|USER||0x1|0000000000|FmtPadCustID|</VALUE><VALUE>SCHEMA=1|2|FmtPadOrderNmbr|Enter FmtPadOrderNmbr:|STRING|USER||0x1|0000000000|FmtPadOrderNmbr|</VALUE><VALUE>SCHEMA=1|3|StrOrgName|Enter StrOrgName:|STRING|USER||0x1|Interactive Intelligence|StrOrgName|</VALUE><VALUE>SCHEMA=1|4|RptProcName|Enter RptProcName:|STRING|USER||0x1|Customer Complaints Process|RptProcName|</VALUE></ATTRIBUTE><ATTRIBUTE NAME="Category"><VALUE>Custom</VALUE></ATTRIBUTE><ATTRIBUTE NAME="Display Name"><VALUE>Customer Complaint</VALUE></ATTRIBUTE><ATTRIBUTE NAME="Table Data"><VALUE>Eic Data Source|0|Com_Report|Complaint|Nothing|</VALUE></ATTRIBUTE></ENTRY>

</ENTRY>

</ENTRY>

</ENTRY>

</ENTRY>

